Diversity on College Campuses
…
## Loading required package: xml2

library(magrittr)
library(tibble)
url <- "https://www.usnews.com/best-colleges/search?_mode=table&_sort=acceptance-rate&_sort-direction=asc"
colleges <- url %>%
  read_html() %>%
  html_node("table") %>%
  html_table(fill=TRUE) %>%
  set_colnames(c("Name_Rank", "Tuition_and_Fees", "Enrollment", "Acceptance_Rate", "Compare")) %>%
  as_data_frame
colleges

## # A tibble: 23 x 5
##    Name_Rank           Tuition_and_Fees Enrollment Acceptance_Rate Compare
##    <chr>               <chr>            <chr>      <chr>           <lgl>  
##  1 "Alice Lloyd Colle~ $12,050          599        4%              NA     
##  2 "Curtis Institute ~ $2,525           N/A        4%              NA     
##  3 "Harvard Universit~ $48,949          6,710      5%              NA     
##  4 "Stanford Universi~ $49,617          7,034      5%              NA     
##  5 "Columbia Universi~ $57,208          6,113      6%              NA     
##  6 ""                  <NA>             <NA>       <NA>            NA     
##  7 "Yale University\n~ $51,400          5,472      6%              NA     
##  8 "Juilliard School\~ $41,410          580        7%              NA     
##  9 "Princeton Univers~ $47,140          5,400      7%              NA     
## 10 "California Instit~ $49,908          979        8%              NA     
## # ... with 13 more rows
…
